<?xml version="1.0" encoding="iso-8859-1"?>
<!-- Generator: Adobe Illustrator 19.0.0, SVG Export Plug-In . SVG Version: 6.00 Build 0)  -->
<svg version="1.1" id="Capa_1" xmlns="http://www.w3.org/2000/svg" xmlns:xlink="http://www.w3.org/1999/xlink" x="0px" y="0px"
	 viewBox="0 0 384 384" width="26" height="26" style="fill: #a34d3c;" xml:space="preserve">
<g>
	<g>
		<path d="M192,0C85.961,0,0,85.961,0,192s85.961,192,192,192s192-85.961,192-192S298.039,0,192,0z M192,341.333
			c-82.475,0-149.333-66.859-149.333-149.333S109.525,42.667,192,42.667S341.333,109.525,341.333,192S274.475,341.333,192,341.333z"
			/>
	</g>
</g>
<g>
	<g>
		<polygon points="213.333,184.379 213.333,85.333 170.667,85.333 170.667,202.319 241.077,271.245 270.923,240.755 		"/>
	</g>
</g>
<g>
</g>
<g>
</g>
<g>
</g>
<g>
</g>
<g>
</g>
<g>
</g>
<g>
</g>
<g>
</g>
<g>
</g>
<g>
</g>
<g>
</g>
<g>
</g>
<g>
</g>
<g>
</g>
<g>
</g>
</svg>
